{
  "sheets": [
    {
      "name": "2400",
      "sheetAuthor": {
        "name": "Grepehu",
        "url": "https://grepehu.neocities.org/"
      },
      "sheet": [
        "# Character Name\n\n**Specialty:** Example\n\n## Description\n\nA simple introduction about your character.",
        "# Skills\n\n| Dice    | Skills |\n| -------- | ------- |\n| d12  | Example    |\n| d10  | Example, Example    |\n| d8  | Example, Example    |",
        "# Items\n\n**Credits ($):** 0\n\n- Apple\n- Water\n\n## Gear\n\n| Gear    | Broken |\n| -------- | ------- |\n| Dagger  | [[checkbox(0)]] |\n| Armor  | [[checkbox(1)]] |",
        "#  Hindrances\n\n- Bruised Ankle",
        "# Notes\n\nPersonal notes here"
      ]
    },
    {
      "name": "Agents of the O.D.D.",
      "sheetAuthor": {
        "name": "Grepehu",
        "url": "https://grepehu.neocities.org/"
      },
      "sheet": [
        "# Character Name\n\n## Character Title\n\nA simple introduction about your character type and their specialties.",
        "# Health\n\n| Current    | Max |\n| -------- | ------- |\n| [[counter(6)]]  | 6    |\n\n- **Armor**: 1\n- **Critical Damage**: [[checkbox(0)]]\n- **Deprived**: [[checkbox(0)]]",
        "# Items\n\n- Flashlight\n- Satellite phone\n- O.D.D. identification\n\n## Weapons\n\n| Weapon | Damage |\n| -------- | ------- |\n| Service Pistol  | D6 |",
        "# Stats\n\n|     | Current    | Max |\n| -------- | -------- | ------- |\n| **STR** | [[counter(10)]]  | 10    |\n| **DEX** | [[counter(10)]] | 10     |\n| **WIL** | [[counter(10)]]    | 10    |",
        "# Notes\n\nPersonal notes here"
      ]
    },
    {
      "name": "Black Sword Hack",
      "sheetAuthor": {
        "name": "Grepehu",
        "url": "https://grepehu.neocities.org/"
      },
      "sheet": [
        "# Character Name\n\n|  |  |\n| ---- | ---- |\n| **Level** | [[counter(1)]] |\n\n**Origin:** Example\n\n**Background:** Example\n\n## Equipment\n\n**Armor:** Example\n\n**Weapons:** Example\n\n**Miscellaneous:**\n\n- Example\n- Example\n\n## Gifts\n\n- Example\n- Example\n\n## Stories & Dark Secrets\n\n- Example\n- Example",
        "# Stats\n\n|  |  |  |  |\n| -------- | ------- | -------- | ------- |\n| **Str**  | [[counter(10)]]    | **Int**  | [[counter(10)]]    |\n| **Dex**  | [[counter(10)]]   | **Wis**  | [[counter(10)]]    |\n| **Con**  | [[counter(10)]]   | **Cha**  | [[counter(10)]]    |\n\n## Hit Points\n\n| Current | Max |\n| ---- | ---- |\n| [[counter(10)]] | 10 |\n\n## Damage Die\n\n| Weapon | Unarmed |\n| ---- | ---- |\n| d6 | d4 |\n\n## Doom Die\n\nd6",
        "# Notes\n\nPersonal notes here."
      ]
    },
    {
      "name": "Cairn",
      "sheetAuthor": {
        "name": "Grepehu",
        "url": "https://grepehu.neocities.org/"
      },
      "sheet": [
        "# Character Name\n\n## Description\n\nA simple introduction about your character.",
        "# Health\n\n| Current    | Max |\n| -------- | ------- |\n| [[counter(6)]]  | 6    |\n\n- **Armor**: 1\n- **Critical Damage**: [[checkbox(0)]]\n- **Deprived**: [[checkbox(0)]]\n\n## Scars\n\n| Scar | How it affected you |\n| ---- | ---- |\n| Example | Example |\n",
        "# Items\n\n## Money\n\n| Pennies | Shillings | Guilders |\n| -------- | -------- | ------- |\n| 0 | 100  | 0    |\n\n| Hand    | Item's name | Fatigue |\n| -------- | ------- | ------- |\n| [[checkbox(0)]] | Item name    | [[checkbox(0)]] |\n| [[checkbox(0)]] | Item name    | [[checkbox(0)]] |\n| [[checkbox(0)]] | Item name    | [[checkbox(0)]] |\n| [[checkbox(0)]] | Item name    | [[checkbox(0)]] |\n| [[checkbox(0)]] | Item name    | [[checkbox(0)]] |\n| [[checkbox(0)]] | Item name    | [[checkbox(0)]] |\n| [[checkbox(0)]] | Item name    | [[checkbox(0)]] |\n| [[checkbox(0)]] | Item name    | [[checkbox(0)]] |\n| [[checkbox(0)]] | Item name    | [[checkbox(0)]] |\n| [[checkbox(0)]] | Item name    | [[checkbox(0)]] |",
        "# Stats\n\n|     | Current    | Max |\n| -------- | -------- | ------- |\n| **STR** | [[counter(10)]]  | 10    |\n| **DEX** | [[counter(10)]] | 10     |\n| **WIL** | [[counter(10)]]    | 10    |",
        "# Notes\n\nPersonal notes here"
      ]
    },
    {
      "name": "City of Mist",
      "sheetAuthor": {
        "name": "Grepehu",
        "url": "https://grepehu.neocities.org/"
      },
      "sheet": [
        "# Character Name\n\n**Logos:** Example\n\n**Mythos:** Example\n\n| Crew    | Help | Hurt |\n| -------- | ------- | ------- |\n| Example |  |  |\n| Example |  |  |\n\n### Story Tags\n\n- Example\n\n### Nemeses\n\n- Example",
        "# Build-Up\n[[checkbox(0)]] [[checkbox(0)]] [[checkbox(0)]] [[checkbox(0)]]\n\n| Moments of Evolution | Used |\n| ---- | ---- |\n| Choose another broad power tag | [[checkbox(0)]] |\n| Gain and extra theme: Ally | [[checkbox(0)]] |\n| Gain and extra theme: Base of Operations | [[checkbox(0)]] |\n| Gain and extra theme: Ride | [[checkbox(0)]] |\n| Get closure from your Nemeses | [[checkbox(0)]] |\n| See through the Mist | [[checkbox(0)]] |\n| Make one Core Move permanently **Dynamite!** | [[checkbox(0)]] |\n| Make one Core Move permanently **Dynamite!** | [[checkbox(0)]] |\n| Make one Core Move permanently **Dynamite!** | [[checkbox(0)]] |\n| Go through a transformation | [[checkbox(0)]] |\n| Leave the City | [[checkbox(0)]] |\n",
        "# Theme 1\n\n**Type**: Logos/Mythos \n\n| Attention | Fade/Crack |\n| ---- | ---- |\n| [[checkbox(0)]] [[checkbox(0)]] [[checkbox(0)]] | [[checkbox(0)]] [[checkbox(0)]] [[checkbox(0)]] |\n\n## Mystery/Identity\n\nExample\n\n| | Power Tags | Burned |\n| ----| ---- | ---- |\n| | Example | [[checkbox(0)]] |\n| | Example | [[checkbox(0)]] |\n\n| | Weakness Tags | Invoked |\n| ----| ---- | ---- |\n| | Example | [[checkbox(0)]] |\n| | Example | [[checkbox(0)]] |\n\n### Improvements\n\n- Example\n\n### Flipside\n\n- Example\n",
        "# Theme 2\n\n**Type**: Logos/Mythos\n\n| Attention | Fade/Crack |\n| ---- | ---- |\n| [[checkbox(0)]] [[checkbox(0)]] [[checkbox(0)]] | [[checkbox(0)]] [[checkbox(0)]] [[checkbox(0)]] |\n\n## Mystery/Identity\n\nExample\n\n| | Power Tags | Burned |\n| ----| ---- | ---- |\n| | Example | [[checkbox(0)]] |\n| | Example | [[checkbox(0)]] |\n\n| | Weakness Tags | Invoked |\n| ----| ---- | ---- |\n| | Example | [[checkbox(0)]] |\n| | Example | [[checkbox(0)]] |\n\n### Improvements\n\n- Example\n\n### Flipside\n\n- Example\n",
        "# Theme 3\n\n**Type**: Logos/Mythos\n\n| Attention | Fade/Crack |\n| ---- | ---- |\n| [[checkbox(0)]] [[checkbox(0)]] [[checkbox(0)]] | [[checkbox(0)]] [[checkbox(0)]] [[checkbox(0)]] |\n\n## Mystery/Identity\n\nExample\n\n| | Power Tags | Burned |\n| ----| ---- | ---- |\n| | Example | [[checkbox(0)]] |\n| | Example | [[checkbox(0)]] |\n\n| | Weakness Tags | Invoked |\n| ----| ---- | ---- |\n| | Example | [[checkbox(0)]] |\n| | Example | [[checkbox(0)]] |\n\n### Improvements\n\n- Example\n\n### Flipside\n\n- Example\n",
        "# Theme 4\n\n**Type**: Logos/Mythos\n\n| Attention | Fade/Crack |\n| ---- | ---- |\n| [[checkbox(0)]] [[checkbox(0)]] [[checkbox(0)]] | [[checkbox(0)]] [[checkbox(0)]] [[checkbox(0)]] |\n\n## Mystery/Identity\n\nExample\n\n| | Power Tags | Burned |\n| ----| ---- | ---- |\n| | Example | [[checkbox(0)]] |\n| | Example | [[checkbox(0)]] |\n\n| | Weakness Tags | Invoked |\n| ----| ---- | ---- |\n| | Example | [[checkbox(0)]] |\n| | Example | [[checkbox(0)]] |\n\n### Improvements\n\n- Example\n\n### Flipside\n\n- Example\n",
        "# Tracking Status\n\n\n| Tag | Tier | Sub-Tier |\n| ---- | ---- | ---- |\n| Example | 4 | 2 |\n| Example | 4 | 2 |\n\n",
        "# Notes\n\nExample"
      ]
    },
    {
      "name": "City of Mist - Moves Reference",
      "sheetAuthor": {
        "name": "Grepehu",
        "url": "https://grepehu.neocities.org/"
      },
      "sheet": [
        "# CoM - Moves Ref\n\nThe eight Core Moves cover the vast majority of actions players can take\nin City of Mist. The following section illustrates the moves and explains their conditions and possible outcomes.\n\nThe Core Moves use terms such as tags, statuses, Clues, and Juice, all of which are summarized on pages 164-165 and explained fully under Game Resources, starting on page 204.\n\n## The Rule of “Minimum One”\n\nSome Core Moves define the benefit you derive from the move, such as Clues, Juice, or statuses you give, in terms of Power. For example, when you score a hit with the Investigate move, you gain a number of Clues equal to your Power. \n\nWhen you make a move with a Power of zero or less and score a hit, you always get at least one point of benefit: one Clue, one Juice, or a tier-1 status.",
        "# Convince\n\nWhen you use your abilities **to talk, threaten, or seduce someone into doing something**, roll+Power. On a hit, choose a relevant status with\ntier=Power. Your target can choose either to take the status or:\n- on a 7-9, to give in a little, but protect their own agenda.\n- on a 10+, to change their agenda to include yours, at least for the time being.",
        "# Change The Game\n\nWhen you use your abilities **to give yourself or your allies an advantage**, roll+Power. On a hit, you get Juice=Power. Spend your Juice to gain the following effects, one-to-one:\n- Create a story tag\n- Burn a power tag or a story tag\n- Give or reduce a status (one tier per point of Juice)\n\nOn a 10+, you get a minimum of 2 Juice, and you can also use your Juice to choose:\n- Scale up the effect (greater area or more targets)\n- Prolong the effect (make it ongoing)\n- Hide the effect\n- Any other improvement you and the MC agree on",
        "# Face Danger\n\nWhen you use your abilities **to avoid an incoming hit, endure harm, resist a malign influence, or hold it together**, the MC (or player) will name a status with its tag and tier. Roll+Power. On a 10+, you fend off the effect and take no status at all. On a 7-9, you take the status, but with -1 tier. On a miss, you take the full status.",
        "# Go Toe to Toe\n\nWhen you use your abilities **to overcome someone or something in a struggle for control**, state what your goal is. Your opponent can describe how they respond, at their option. Roll+Power. On a 7-9, choose 1. On a 10+, choose 2:\n- You manage to achieve your goal, e.g., take something they hold.\n- You get them good, giving your opponent a status with tier=Power.\n- You block, dodge, or counter their best attempts. If you don’t choose this, they can impose a status on you. If they are a PC, its tier=their Power.",
        "# Hit With All You've Got\n\nWhen you have a **clear shot** and you use your abilities **to hit someone or something** with all you’ve got, roll+Power. On a hit, you give the target an appropriate status of your choice with tier=Power. On a 10+, choose 2. On a 7-9, choose 1:\n- You take cover or secure a superior position. If you don’t choose this, they can impose a status on you. If they are a PC, its tier=their Power.\n- You get them good or get many of them (+1 tier).\n- You control the collateral damage.\n- You hold the target’s attention, if possible.\n- You gain the upper hand. Take 1 Juice.",
        "# Investigate\n\nWhen you use your abilities **to seek answers to burning questions**, roll+Power. On a hit, you get Clues=Power. Spend your Clues one-to-one to ask the MC a question about the subject of your investigation or ask another player a relevant question about their character. They must give you either a straight answer or a solid lead. On a 7-9, they can also choose 1:\n- Your investigation exposes you to danger.\n- The clues you get are fuzzy, incomplete, or part-true part-false.\n- Whoever or whatever you are asking the question(s) can ask you one question as well. You answer on the same terms.",
        "# Sneak Around\n\nWhen you use your abilities **to act secretly or deceptively**, roll+Power. On a hit, everyone that should fall for it falls for it. On a 7-9, it’s complicated. The MC chooses 1:\n- Someone unimportant noticed you, but that just made them important, right?\n- You are perceived only by a secondary sense (someone picks up your scent while you’re stalking them; you’re seen whispering a message but the message is not heard).\n- You must leave something important behind or be discovered.",
        "# Take The Risk\n\nWhen you perform **a daring, risky, or outright stupid feat**, roll+Power. On a 10+, you do it, somehow. On a 7-9, things get messy. The MC will offer you a hard bargain or an ugly choice.",
        "# Finally, Some Answers\n\nWhen you **find answers to your Mystery**, choose one, two, or all three:\n\nYou gain a deeper understanding of your Mythos, of the subject of your Mystery, or of the link between your Mystery and your Mythos. Mark Attention on the theme to which this Mystery belongs.\n\nYou are shocked by the discovery to the point of rejecting your Mythos or an aspect of your ordinary life. Mark Fade or Crack on any theme.\n\nYour questions are answered. Choose a new Mystery for this theme.",
        "# End of The Road\n\nIf **your Identity ever becomes resolved**, rephrase it in the same spirit to describe a new goal, a greater scope, a new angle, etc. Alternatively, if this aspect of your life truly ended, you may replace this Identity’s theme.",
        "# Make a Hard Choice\n\nWhen answers to your Mystery are within reach, but you forego them, mark Fade on that Mystery’s theme.\n\nWhen your Identity demands you act or speak in a given way and you don’t, mark Crack on that Identity’s theme.\n\nWhen you sacrifice something you truly want in order to abide by your Identity, mark Attention on that Identity’s theme.",
        "# Montage (Downtime)\n\nWhenever your character has some downtime, choose one way to spend it:\n- **Give attention** to one of your Logos (or extra) themes. Tell everyone at the table how you do it and mark Attention on that theme.\n- **Work the case**. Tell everyone at the table how you do it, and gain 3 Clues with a method and a source based on your description.\n- **Explore your Mythos**. Tell everyone at the table which Mystery you explore and how you do it. You gain 1 Clue with a method and a source\nbased on your description. Mark Attention on that Mystery’s theme.\n- **Prepare for your next activity**. Tell everyone at the table how you prepare and choose one: recover all your burnt power tags OR gain 3 Juice with a method based on your description. You can choose from the effect improvements under Change the Game.\n- **Recover from you last activity**. For each on- going status still affecting you, the MC will tell you if and how it can be reduced during your downtime and by how many tiers. Alternatively, the MC can allow you to reduce any or some of your statuses by one tier for each relevant tag you have.\n\nThe MC can cue into any of the montage events and continue them as scenes.",
        "# Flashback\n\nOnce per session, when you have the spotlight, choose 1:\n\nDescribe an action carried out by your character in the past and make a move for that action. The outcome of the move affects the current scene. \n\nDescribe events from your character’s backstory that become relevant now. The MC can award you with 1 Juice or 1 Clue based on your description.",
        "# Stop. Holding. Back\n\nWhen you **use your powers in a new and never-before-seen way or scale**, tell the MC what you hope to achieve. The MC will tell you the sacrifice it will take from you. Then roll+Logos. On a hit, you achieve exactly what you wanted to achieve and pay the price:\n\n**Significant**: On a 7-9, mark Fade/Crack and burn all the power tags on one theme. On a 10+, mark Fade/Crack on one theme.\n\n**No Return**: On a 7-9, replace one theme. On a 10+, mark Fade/Crack and burn all the power tags on one theme.\n\n**Ultimate**: On a 7-9, you are killed, destroyed, or transformed forever (for now). Take a tier-6 status. You cannot Face Danger. On a 10+, replace one theme\n\nOn a 6 or less, you pay the price given for 7-9, but you also lose control over your powers or fail to use them as planned. The MC will decide how, and what the consequences are.",
        "# Geek Out During Credits\n\nAt the end of the session, when the credits roll, go around the table. Each player can answer one or more of the following questions:\n- **How has the crew grown this session?** Recover a burnt crew power tag or mark Attention on a crew theme.\n- **Which character had the most meaningful interaction with your character this session?** Add one Help point or one Hurt point next to their name on your character card.\n• **Which of your themes is under the most strain? If it collapses, what new aspect will show up in its place?** Write down the answer under FLIPSIDE on that theme’s card."
      ]
    },
    {
      "name": "City of Mist (PT-BR)",
      "sheetAuthor": {
        "name": "Grepehu",
        "url": "https://grepehu.neocities.org/"
      },
      "sheet": [
        "# Nome do Personagem\n\n**Logos:** Exemplo\n\n**Mythos:** Exemplo\n\n| Galera    | Apoio | Antag. |\n| -------- | ------- | ------- |\n| Exemplo |  |  |\n| Exemplo |  |  |\n\n### Rótulos de História\n\n- Exemplo\n\n### Nêmesis\n\n- Exemplo",
        "# Progressão\n[[checkbox(0)]] [[checkbox(0)]] [[checkbox(0)]] [[checkbox(0)]]\n\n| Momentos de Evolução | Usado |\n| ---- | ---- |\n| Escolher outro rótulo de poder genérico | [[checkbox(0)]] |\n| Ganhar um tema adicional: Aliado | [[checkbox(0)]] |\n| Ganhar um tema adicional: Base de Operações | [[checkbox(0)]] |\n| Ganhar um tema adicional: Transporte | [[checkbox(0)]] |\n| Finalizar a questão com o seu Nemesis | [[checkbox(0)]] |\n| Ver através das Brumas | [[checkbox(0)]] |\n| Tornar um movimento principal permanentemente: **Animal!** | [[checkbox(0)]] |\n| Tornar um movimento principal permanentemente: **Animal!** | [[checkbox(0)]] |\n| Tornar um movimento principal permanentemente: **Animal!** | [[checkbox(0)]] |\n| Passar por uma transformação | [[checkbox(0)]] |\n| Sair da cidade | [[checkbox(0)]] |\n",
        "# Tema 1\n\n**Tipo**: Logos/Mythos\n\n| Atenção | Dissipação/Quebra |\n| ---- | ---- |\n| [[checkbox(0)]] [[checkbox(0)]] [[checkbox(0)]] | [[checkbox(0)]] [[checkbox(0)]] [[checkbox(0)]] |\n\n## Mistério/Identidade\n\nExemplo\n\n| | Rótulos de Poder | Queimado |\n| ----| ---- | ---- |\n| | Exemplo | [[checkbox(0)]] |\n| | Exemplo | [[checkbox(0)]] |\n\n| | Rótulos de Fraqueza | Invocado |\n| ----| ---- | ---- |\n| | Exemplo | [[checkbox(0)]] |\n| | Exemplo | [[checkbox(0)]] |\n\n### Melhorias\n\n- Exemplo\n\n### E Se...\n\n- Exemplo\n",
        "# Tema 2\n\n**Tipo**: Logos/Mythos\n\n| Atenção | Dissipação/Quebra |\n| ---- | ---- |\n| [[checkbox(0)]] [[checkbox(0)]] [[checkbox(0)]] | [[checkbox(0)]] [[checkbox(0)]] [[checkbox(0)]] |\n\n## Mistério/Identidade\n\nExemplo\n\n| | Rótulos de Poder | Queimado |\n| ----| ---- | ---- |\n| | Exemplo | [[checkbox(0)]] |\n| | Exemplo | [[checkbox(0)]] |\n\n| | Rótulos de Fraqueza | Invocado |\n| ----| ---- | ---- |\n| | Exemplo | [[checkbox(0)]] |\n| | Exemplo | [[checkbox(0)]] |\n\n### Melhorias\n\n- Exemplo\n\n### E Se...\n\n- Exemplo\n",
        "# Tema 3\n\n**Tipo**: Logos/Mythos\n\n| Atenção | Dissipação/Quebra |\n| ---- | ---- |\n| [[checkbox(0)]] [[checkbox(0)]] [[checkbox(0)]] | [[checkbox(0)]] [[checkbox(0)]] [[checkbox(0)]] |\n\n## Mistério/Identidade\n\nExemplo\n\n| | Rótulos de Poder | Queimado |\n| ----| ---- | ---- |\n| | Exemplo | [[checkbox(0)]] |\n| | Exemplo | [[checkbox(0)]] |\n\n| | Rótulos de Fraqueza | Invocado |\n| ----| ---- | ---- |\n| | Exemplo | [[checkbox(0)]] |\n| | Exemplo | [[checkbox(0)]] |\n\n### Melhorias\n\n- Exemplo\n\n### E Se...\n\n- Exemplo\n",
        "# Tema 4\n\n**Tipo**: Logos/Mythos\n\n| Atenção | Dissipação/Quebra |\n| ---- | ---- |\n| [[checkbox(0)]] [[checkbox(0)]] [[checkbox(0)]] | [[checkbox(0)]] [[checkbox(0)]] [[checkbox(0)]] |\n\n## Mistério/Identidade\n\nExemplo\n\n| | Rótulos de Poder | Queimado |\n| ----| ---- | ---- |\n| | Exemplo | [[checkbox(0)]] |\n| | Exemplo | [[checkbox(0)]] |\n\n| | Rótulos de Fraqueza | Invocado |\n| ----| ---- | ---- |\n| | Exemplo | [[checkbox(0)]] |\n| | Exemplo | [[checkbox(0)]] |\n\n### Melhorias\n\n- Exemplo\n\n### E Se...\n\n- Exemplo\n",
        "# Condições\n\n\n| Rótulos | Qualificador | Sub-qualificador |\n| ---- | ---- | ---- |\n| Exemplo | 4 | 2 |\n| Exemplo | 4 | 2 |\n\n",
        "# Notas\n\nExemplo"
      ]
    },
    {
      "name": "City of Mist (PT-BR) - Movimentos",
      "sheetAuthor": {
        "name": "Grepehu",
        "url": "https://grepehu.neocities.org/"
      },
      "sheet": [
        "# CoM - Movimentos\n\nOs oito Movimentos Principais cobrem a grande maioria das ações que os jogadores podem realizar em City of Mist. A seção a seguir ilustra os movimentos e explica as condições e resultados possíveis.\n\nOs Movimentos Principais usam termos como rótulos, condições, Dicas e Gás, todos resumidos nas páginas 164 e 165 e explicados na parte de Recursos do Jogo, que começa na pág. 204.\n\n## A Regra do \"Mínimo de Um\"\n\nAlguns Movimentos Principais definem o benefício obtido a partir do movimento, como Pistas, Gás ou Condições que você atribui, sempre em termos de Poder. Por exemplo, quando você tem um sucesso com o movimento Investigar, você ganha um número de Dicas igual ao seu Poder. Quando você faz um movimento com um Poder de zero ou menos e tem um sucesso, sempre obtém pelo menos um ponto de benefício: uma Dica, um Gás ou uma condição de qualificador 1.",
        "# Convencer\n\nQuando usar suas habilidades **para falar, ameaçar ou seduzir alguém para que a pessoa faça alguma coisa**, use rolagem + Poder. Se tiver sucesso, escolha uma condição relacionada com qualificador = Poder. O alvo pode escolher entre receber a condição ou:\n- num resultado 7 a 9, ceder um pouco, mas continuar correndo atrás dos próprios objetivos.\n- num resultado 10+, mudar seus objetivos para incluir os seus, pelo menos por um tempo.",
        "# Virar o Jogo\n\nQuando usar suas habilidade **para criar alguma vantagem para si mesma ou seus aliados**, use rolagem + Poder. Se acertar, você recebe Gás = Poder. Gaste o Gás para ganhar os seguintes efeitos, numa relação de um para um:\n- Criar um rótulo de história\n- Gastar um rótulo de poder ou um rótulo de história\n- Criar ou reduzir uma condição (uma qualificação por ponto de gás)\n\nEm um resultado 10+, você recebe um mínimo de 2 Gás e também pode usar o Gás para escolher:\n- Aumentar o efeito (área maior ou mais alvos)\n- Prolongar o efeito (ou torná-lo contínuo)\n- Ocultar o efeito\n- Qualquer outra melhoria que seja acordada com a MC",
        "# Rir na Cara do Perigo\n\nQuando usar suas habilidades **para evitar um ataque, suportar danos, resistir a influências malignas ou segurar as pontas**, a MC (ou o jogador) nomeiam uma condição com rótulo e qualificador. Use rolagem + Poder. Num resultado 10+, você se livra do efeito e não recebe nenhuma condição. Num resultado 7 a 9, você recebe a condição, mas com qualificador 1. Se falhar, você recebe a condição completa",
        "# Partir pro Abraço\n\nQuando usar suas habilidades **para superar algo ou alguém numa luta por controle**, defina seu objetivo. O oponente pode descrever como responde, à escolha dele. Use rolagem + Poder. Num resultado 7 a 9, escolha 1. Num resultado 10+, escolha 2.\n- Você consegue atingir o objetivo, como por exemplo pegar algo das mãos do oponente.\n- Você pega o oponente de jeito, gerando para ele uma condição com qualificador = Poder.\n- Você bloqueia, desvia ou retribui até os melhores golpes. Se não escolher essa opção, o oponente pode definir uma condição para você. Se for contra uma PJ, o qualificador = Poder dela.",
        "# Ir Com Tudo\n\nQuando você tem a **mira livre** e usa suas habilidades para **Ir Com Tudo no ataque a algo ou alguém**, use rolagem + Poder. Se acertar, dê ao alvo as condições apropriadas à escolha, com qualificador = Poder. Num resultado 10+, escolha 2. Num resultado 7 a 9, escolha 1.\n- Você encontra cobertura ou conquista uma posição de vantagem. Se não escolher nenhum desses, o oponente pode definir uma condição para você. Se for contra uma PJ, o qualificador = Poder dela.\n- Você acerta de jeito, ou acerta muitos alvos (qualificador +1).\n- Você controla o dano colateral.\n- Você atrai a atenção do alvo, se possível.\n- Você fica na vantagem. Receba 1 de Gás.",
        "# Investigar\n\nQuando usar suas habilidades de **buscar respostas para perguntas prementes**,  use rolagem + Poder. Se acertar, você recebe um número de Dicas = Poder. Gaste as Dicas uma a uma para perguntar à MC sobre o que está sendo investigado ou para fazer a outro jogador alguma pergunta relevante sobre a personagem dele. A resposta deve ser direta e sem rodeios, ou pelo menos uma pista sólida. Num resultado 7 a 9, o alvo também pode escolher 1:\n- A investigação expõe você ao perigo.\n- As dicas são confusas, incompletas ou parcialmente falsas.\n- Quem ou o que estiver respondendo às perguntas também pode fazer uma pergunta. Você responde nos mesmos termos.",
        "# Agir na Encolha\n\nQuando usa suas habilidades **para agir em segredo ou enganar**, use rolagem + Poder. Se acertar, todos que deveriam cair no artifício, caem. Num resultado 7 a 9, a coisa complica. A MC escolhe 1:\n- Alguém sem importância notou você, mas isso torna essa pessoa importante, não é mesmo?\n- Você é percebido por algum sentido secundário (alguém sente seu cheiro enquanto você está espreitando, ou você é visto sussurrando com alguém, mas a mensagem não é ouvida).\n- Você precisa deixar algo importante para trás, senão será descoberto.",
        "# Correr o Risco\n\nQuando **tentar um feito ousado, arriscado ou simplesmente idiota**, use rolagem + Poder. Num resultado 10+, você consegue, sabe-se lá como. Num resultado 7 a 9, a coisa complica. A MC vai oferecer uma barganha difícil ou uma escolha dura.",
        "# Finalmente Algumas Respostas\n\nQuando **encontrar respostas para o seu Mistério**, escolha uma, duas ou todas as três:\n\nVocê adquire uma compreensão mais profunda do seu Mythos, do assunto do seu Mistério ou da ligação entre seu Mistério e seu Mythos. Marque Atenção no tema desse Mistério.\n\nVocê fica chocado com a descoberta, a ponto de rejeitar seu Mythos ou um aspecto de sua vida cotidiana. Marque Dissipação ou Quebra em qualquer tema.\n\nSuas perguntas foram respondidas. Escolha um novo mistério para este tema.",
        "# Fim da Linha\n\nSe **sua Identidade se resolver**, reescreva mantendo o princípio, mas com uma nova meta, ou maior abrangência, outra perspectiva, por aí vai. Outra opção, caso esse aspecto da sua vida tenha mesmo acabado, é substituir a identidade do tema.",
        "# Fazer Uma Escolha Difícil\n\nQuando as respostas para o Mistério estão ao seu alcance, mas você as deixa para lá, marque Dissipação no tema do Mistério.\n\nQuando sua Identidade exige que você aja ou fale de determinada maneira e você vai contra isso, marque Quebra no tema da Identidade.\n\nQuando sacrificar algo que realmente quer para seguir sua Identidade, marque Atenção no tema dessa Identidade.",
        "# Hora do Show (Intervalo)\n\nSempre que a personagem tiver um intervalo, escolha uma maneira de gastá-lo:\n- **Dar atenção** a um dos temas de Logos (ou a temas adicionais). Anuncie para a mesa como você faz isso e marque Atenção no tema.\n- **Investigar o caso**. Anuncie para a mesa como você faz isso e ganhe 3 Dicas com método e fonte baseados na descrição.\n- **Explorar seu Mythos**. Anuncie para a mesa o mistério que você explora e como o faz. Você ganha 1 Dica com método e fonte baseados na descrição. Marque Atenção no Mistério desse tema.\n- **Preparativos para a próxima atividade**. Anuncie para a mesa como você se prepara e escolha um: recuperar todos os rótulos de poder queimados OU ganhar 3 de Gás com método baseado na descrição. Você pode escolher entre as melhorias de efeito de Virar o jogo.\n- **Recupere-se da sua última atividade**. Para cada condição contínua ainda está afetando a personagem, a MC dirá se e como pode ser reduzida durante o intervalo, além de em quantos níveis de qualificador. Como alternativa, a MC pode permitir que você reduza o qualificador de uma ou mais condições para cada rótulo relevante da personagem.\n\nA MC pode acrescentar detalhes à sequência de cenas da Hora do Show e continuá-las ao longo da história.",
        "# Flashback\n\n**Uma vez por sessão, quando estiver sob os holofotes**, escolha 1:\n\nDescreva uma ação realizada pela personagem no passado e faça um movimento para essa ação. O resultado do movimento afeta a cena atual. \n\nDescreva eventos da história da sua personagem que tenham se tornado relevantes. A MC pode recompensar você com 1 de Gás ou 1 Dica, considerando sua descrição.",
        "# Não. Se. Contenha\n\nQuando **usar os poderes de uma forma ou escala  nova, nunca antes vista**, diga à MC o que espera conseguir. A MC determina o nível de sacrifício que essa ação exige. Depois, use rolagem + Logos. Com um sucesso, você consegue exatamente o que queria e paga o preço:\n\n**Significativo**: num 7 a 9, marque Dissipação ou Quebra e queime todos os rótulos de poder de um tema. Num 10+, marque Dissipação ou Quebra em um tema.\n\n**Sem volta**: num 7 a 9, substitua um tema. Num 10+, marque Dissipação ou Quebra e queime todos os rótulos de poder em um tema.\n\n**Final**: num 7 a 9, você é morto, destruído ou trans-formado para sempre (por enquanto). Receba uma condição de qualificador 6. Você não pode **Rir na Cara do Perigo**. Num 10+, substitua um tema.\n\nNum resultado 6 ou menos, você paga o preço do resultado 7 a 9, mas também perde o controle de seus poderes ou não consegue usá-los como planejado. A MC decidirá como e quais são as consequências.",
        "# Palestrinha dos Créditos Finais\n\nNo final da sessão, quando rolam os créditos, conver-se com todos da mesa. Cada jogador pode responder a uma ou mais das seguintes perguntas:\n- **Como a galera evoluiu nesta sessão?** Recupere uma rótulo de poder de galera queimado ou marque Atenção em um tema de galera.\n- **Com que outra personagem você teve a inte-ração mais significativa da sessão?** Anote um ponto de Apoio ou de Antagonismo ao lado do nome dela na carta de personagem.\n- **Qual dos seus temas está sob maior pressão? Se o tema ruir, que novo aspecto aparecerá em seu lugar?** Escreva a resposta em E SE, na carta do tema."
      ]
    },
    {
      "name": "Deathbringer",
      "sheetAuthor": {
        "name": "Grepehu",
        "url": "https://grepehu.neocities.org/"
      },
      "sheet": [
        "# Character Name\n\n## Character Class\n\n## Description\n\nA simple introduction about your character.",
        "# Stats\n\n| STR | DEX | CON | INT | WIS | CHR |\n| --- | --- | --- | --- | --- | --- |\n| 0 | 0 | 0 | 0 | 0 | 0 |\n\n# Health\n\n| Current    | Max |\n| -------- | ------- |\n| [[counter(10)]]  | 10    |\n\n- **AC**: 10\n- **Corruption**: [[counter(10)]]",
        "# Items\n\n- Apple\n- Water\n\n**Deathbringer Dice:**\n\n## Monies\n\n| Cu | Si | Au |\n| --- | --- | --- |\n| 0 | 0 | 0 |\n\n## Weapons\n\n| Weapon | Damage |\n| -------- | ------- |\n| Dagger  | D4 |",
        "# Notes\n\nPersonal notes here"
      ]
    },
    {
      "name": "Electric Bastionland",
      "sheetAuthor": {
        "name": "Grepehu",
        "url": "https://grepehu.neocities.org/"
      },
      "sheet": [
        "# Character Name\n\n**Failed Career**: Example\n\n## Description\n\nA simple introduction about your character.",
        "# Health\n\n| Current    | Max |\n| -------- | ------- |\n| [[counter(6)]]  | 6    |\n\n- **Armor**: 1\n- **Critical Damage**: [[checkbox(0)]]\n- **Deprived**: [[checkbox(0)]]\n\n## Scars\n\n| Scar | How it affected you |\n| ---- | ---- |\n| Example | Example |\n",
        "# Items\n\n- **Money**: £0\n- Apple\n- Water\n\n## Weapons\n\n| Weapon    | Damage |\n| -------- | ------- |\n| Dagger  | D6    |\n\n**Bulky**: [[checkbox(0)]]  [[checkbox(0)]]",
        "# Stats\n\n|     | Current    | Max |\n| -------- | -------- | ------- |\n| **STR** | [[counter(10)]]  | 10    |\n| **DEX** | [[counter(10)]] | 10     |\n| **CHA** | [[counter(10)]]    | 10    |",
        "# Notes\n\nPersonal notes here"
      ]
    },
    {
      "name": "Fate Accelerated",
      "sheetAuthor": {
        "name": "Grepehu",
        "url": "https://grepehu.neocities.org/"
      },
      "sheet": [
        "# Character Name\n\n## Description\n\nA simple introduction about your character.\n",
        "# Aspects\n\n| Fate Points | Refresh |\n| ---- | ---- |\n| [[counter(3)]] | 3 |\n\n| | |\n| -------- | ------- |\n| **High Concept** | Example |\n| **Trouble** | Example |\n| **Other** | Example |\n| **Other** | Example |\n| **Other** | Example |",
        "# Approaches\n\n|  |  |\n| ---- | ---- |\n| **Careful** | 0 |\n| **Clever** | 0 |\n| **Flashy** | 0 |\n| **Forceful** | 0 |\n| **Quick** | 0 |\n| **Sneaky** | 0 |",
        "# Stunts\n\n-\n-\n-\n",
        "# Stress/Consequences\n\n## Stress\n\n| 1 | 2 | 3 |\n| ---- | ---- | ---- |\n| [[checkbox(0)]] | [[checkbox(0)]] | [[checkbox(0)]] |\n\n## Consequences\n\n| | |\n| -------- | ------- |\n| **Mild (2)** | Example |\n| **Moderate (4)** | Example |\n| **Severe (6)** | Example |",
        "# Notes\n\nPersonal notes here"
      ]
    },
    {
      "name": "Fate Accelerated (PT-BR)",
      "sheetAuthor": {
        "name": "Grepehu",
        "url": "https://grepehu.neocities.org/"
      },
      "sheet": [
        "# Nome do Personagem\n\n## Descrição\n\nUma simples introdução sobre o seu personagem.\n",
        "# Aspectos\n\n| Pontos Fate | Recarga |\n| ---- | ---- |\n| [[counter(3)]] | 3 |\n\n| | |\n| -------- | ------- |\n| **Conceito** | Exemplo |\n| **Dificuldade** | Exemplo |\n| **Outro** | Exemplo |\n| **Outro** | Exemplo |\n| **Outro** | Exemplo |",
        "# Abordagens\n\n|  |  |\n| ---- | ---- |\n| **Ágil** | 0 |\n| **Cuidadoso** | 0 |\n| **Esperto** | 0 |\n| **Estiloso** | 0 |\n| **Poderoso** | 0 |\n| **Sorrateiro** | 0 |",
        "# Façanhas\n\n-\n-\n-\n",
        "# Estresse/Consequências\n\n## Estresse\n\n| 1 | 2 | 3 |\n| ---- | ---- | ---- |\n| [[checkbox(0)]] | [[checkbox(0)]] | [[checkbox(0)]] |\n\n## Consequências\n\n| | |\n| -------- | ------- |\n| **Suave (2)** | Exemplo |\n| **Moderada (4)** | Exemplo |\n| **Severa (6)** | Exemplo |",
        "# Notas\n\nNotas pessoais aqui."
      ]
    },
    {
      "name": "Fate Condensed",
      "sheetAuthor": {
        "name": "Grepehu",
        "url": "https://grepehu.neocities.org/"
      },
      "sheet": [
        "# Character Name\n\n## Description\n\nA simple introduction about your character.\n",
        "# Aspects\n\n| Fate Points | Refresh |\n| ---- | ---- |\n| [[counter(3)]] | 3 |\n\n| | |\n| -------- | ------- |\n| **High Concept** | Example |\n| **Trouble** | Example |\n| **Relationship** | Example |\n| **Other** | Example |\n| **Other** | Example |",
        "# Skills\n\n> Start with one Great (+4), two Good (+3), three Fair (+2), four Average (+1), rest at Mediocre (=0).\n\n| | |\n| ---- | ---- |\n| Academics | 0 |\n| Athletics | 0 |\n| Burglary | 0 |\n| Contacts | 0 |\n| Crafts | 0 |\n| Deceive | 0 |\n| Drive | 0 |\n| Empathy | 0 |\n| Fight | 0 |\n| Investigate | 0 |\n| Lore | 0 |\n| Notice | 0 |\n| Physique | 0 |\n| Provoke | 0 |\n| Rapport | 0 |\n| Resources | 0 |\n| Shoot | 0 |\n| Stealth | 0 |\n| Will | 0 |\n",
        "# Stunts\n\n> Start with three stunts for free. You may buy additional stunts for 1 Refresh each, so long as your Refresh remains at or above 1.\n\n-\n-\n-",
        "# Vitals\n\n## Stress\n\n| | |\n| ---- | ---- |\n| **Physical (Physique)** | [[checkbox(0)]] [[checkbox(0)]] [[checkbox(0)]] |\n| **Mental (Will)** | [[checkbox(0)]] [[checkbox(0)]] [[checkbox(0)]] |\n\n## Consequences\n\n| | |\n| -------- | ------- |\n| **Mild (2)** | Example |\n| **Moderate (4)** | Example |\n| **Severe (6)** | Example |",
        "# Notes\n\nPersonal notes here"
      ]
    },
    {
      "name": "Fate Condensed (PT-BR)",
      "sheetAuthor": {
        "name": "Grepehu",
        "url": "https://grepehu.neocities.org/"
      },
      "sheet": [
        "# Nome do Personagem\n\n## Descrição\n\nUma simples introdução sobre o seu personagem.\n",
        "# Aspectos\n\n| Pontos Fate | Recarga |\n| ---- | ---- |\n| [[counter(3)]] | 3 |\n\n| | |\n| -------- | ------- |\n| **Conceito** | Exemplo |\n| **Dificuldade** | Exemplo |\n| **Relacionamento** | Exemplo |\n| **Outro** | Exemplo |\n| **Outro** | Exemplo |",
        "# Perícias\n\n> Comece com um Ótimo (+4), dois Bons (+3), três Razoáveis (+2), quatro Regulares (+1) e o resto medíocre (=0).\n\n| | |\n| ---- | ---- |\n| Atirar | 0 |\n| Atletismo | 0 |\n| Comunicação | 0 |\n| Condução | 0 |\n| Conhecimento | 0 |\n| Contatos | 0 |\n| Empatia | 0 |\n| Enganar | 0 |\n| Furtividade | 0 |\n| Investigar | 0 |\n| Lutar | 0 |\n| Ocultismo | 0 |\n| Ofícios | 0 |\n| Percepção | 0 |\n| Provocar | 0 |\n| Recursos | 0 |\n| Roubo | 0 |\n| Vigor | 0 |\n| Vontade | 0 |\n",
        "# Façanhas\n\n> Comece com três façanhas gratuitas. Pode-se comprar façanhas adicionais por 1 ponto de recarga cada, desde que sua recarga permaneça com 1 ou mais pontos.\n\n-\n-\n-",
        "# Estado\n\n## Estresse\n\n| | |\n| ---- | ---- |\n| **Físico (Vigor)** | [[checkbox(0)]] [[checkbox(0)]] [[checkbox(0)]] |\n| **Mental (Vontade)** | [[checkbox(0)]] [[checkbox(0)]] [[checkbox(0)]] |\n\n## Consequências\n\n| | |\n| -------- | ------- |\n| **Suave (2)** | Exemplo |\n| **Moderada (4)** | Exemplo |\n| **Severa (6)** | Exemplo |",
        "# Notas\n\nNotas pessoais aqui."
      ]
    },
    {
      "name": "Fate Core",
      "sheetAuthor": {
        "name": "Grepehu",
        "url": "https://grepehu.neocities.org/"
      },
      "sheet": [
        "# Character Name\n\n## Description\n\nA simple introduction about your character.\n",
        "# Aspects\n\n| Fate Points | Refresh |\n| ---- | ---- |\n| [[counter(3)]] | 3 |\n\n| | |\n| -------- | ------- |\n| **High Concept** | Example |\n| **Trouble** | Example |\n| **Other** | Example |\n| **Other** | Example |\n| **Other** | Example |",
        "# Skills\n\n| | | | | | |\n| -------- | ------- | ------- | ------- | ------- | ------- |\n| **Superb (+5)** |  |  |  |  |  |\n| **Great (+4)** | Example |  |  |  |  |\n| **Good (+3)** | Example | Example |  |  |  |\n| **Fair (+2)** | Example | Example | Example |  |  |\n| **Average (+1)** | Example | Example | Example | Example |  |",
        "# Stunts/Extras\n\n## Stunts\n\n-\n-\n-\n\n## Extras",
        "# Stress/Consequences\n\n## Stress\n\n|  | Physical (Physique) | Mental (Will) |\n| ---- | ---- | ---- |\n| 1 | [[checkbox(0)]] | [[checkbox(0)]] |\n| 2 | [[checkbox(0)]] | [[checkbox(0)]] |\n| 3 | | |\n| 4 | | |\n\n## Consequences\n\n| | |\n| -------- | ------- |\n| **Mild (2)** | Example |\n| **Moderate (4)** | Example |\n| **Severe (6)** | Example |",
        "# Notes\n\nPersonal notes here"
      ]
    },
    {
      "name": "Fate Core (PT-BR)",
      "sheetAuthor": {
        "name": "Grepehu",
        "url": "https://grepehu.neocities.org/"
      },
      "sheet": [
        "# Nome do Personagem\n\n## Descrição\n\nUma simples introdução sobre o seu personagem.\n",
        "# Aspectos\n\n| Pontos Fate | Recarga |\n| ---- | ---- |\n| [[counter(3)]] | 3 |\n\n| | |\n| -------- | ------- |\n| **Conceito** | Exemplo |\n| **Dificuldade** | Exemplo |\n| **Outro** | Exemplo |\n| **Outro** | Exemplo |\n| **Outro** | Exemplo |",
        "# Perícias\n\n| | | | | | |\n| -------- | ------- | ------- | ------- | ------- | ------- |\n| **Excep. (+5)** |  |  |  |  |  |\n| **Ótimo (+4)** | Exemplo |  |  |  |  |\n| **Bom (+3)** | Exemplo | Exemplo |  |  |  |\n| **Razoável (+2)** | Exemplo | Exemplo | Exemplo |  |  |\n| **Regular (+1)** | Exemplo | Exemplo | Exemplo | Exemplo |  |",
        "# Façanhas/Extras\n\n## Façanhas\n\n-\n-\n-\n\n## Extras",
        "# Estresse/Consequências\n\n## Estresse\n\n|  | Físico (Vigor) | Mental (Vontade) |\n| ---- | ---- | ---- |\n| 1 | [[checkbox(0)]] | [[checkbox(0)]] |\n| 2 | [[checkbox(0)]] | [[checkbox(0)]] |\n| 3 | | |\n| 4 | | |\n\n## Consequências\n\n| | |\n| -------- | ------- |\n| **Suave (2)** | Exemplo |\n| **Moderada (4)** | Exemplo |\n| **Severa (6)** | Exemplo |",
        "# Notas\n\nNotas pessoais aqui."
      ]
    },
    {
      "name": "Into The Bronze",
      "sheetAuthor": {
        "name": "Grepehu",
        "url": "https://grepehu.neocities.org/"
      },
      "sheet": [
        "# Character Name\n\n**Level**: 1\n\n## Description\n\nA simple introduction about your character.\n\n## Notes\n\nYour notes here.",
        "# Stats\n\n|     | Current    | Max |\n| -------- | -------- | ------- |\n| **STR** | [[counter(10)]]  | 10    |\n| **DEX** | [[counter(10)]] | 10     |\n| **WIL** | [[counter(10)]]    | 10    |\n\n# Health\n\n| Current    | Max |\n| -------- | ------- |\n| [[counter(6)]]  | 6    |\n\n- **Condition**: Example\n- **Armor**: 1",
        "# Items\n\n| | Item | Description | Usage |\n| --- | --- | --- | --- |\n| **#1** | Dagger | Explosion: 6 | [[checkbox(0)]] [[checkbox(0)]] [[checkbox(0)]] |\n| **#2** | Example | Example | [[checkbox(0)]] [[checkbox(0)]] [[checkbox(0)]] |\n| **#3** | Example | Example | [[checkbox(0)]] [[checkbox(0)]] [[checkbox(0)]] |\n| **#4** | Example | Example | [[checkbox(0)]] [[checkbox(0)]] [[checkbox(0)]] |\n| **#5** | Example | Example | [[checkbox(0)]] [[checkbox(0)]] [[checkbox(0)]] |\n| **#6** | Example | Example | [[checkbox(0)]] [[checkbox(0)]] [[checkbox(0)]] |\n\n**Obsidian**: 0\n\n## Enchantments Words\n\n- Example\n- Example"
      ]
    },
    {
      "name": "Into The Bronze (PT-BR)",
      "sheetAuthor": {
        "name": "Grepehu",
        "url": "https://grepehu.neocities.org/"
      },
      "sheet": [
        "# Nome do Personagem\n\n**Nível**: 1\n\n## Descrição\n\nUma simples descrição sobre o seu personagem.\n\n## Notas\n\nSua notas aqui.",
        "# Stats\n\n|     | Atual    | Max |\n| -------- | -------- | ------- |\n| **FOR** | [[counter(10)]]  | 10    |\n| **DES** | [[counter(10)]] | 10     |\n| **VON** | [[counter(10)]]    | 10    |\n\n# Vitalidade\n\n| Atual    | Max |\n| -------- | ------- |\n| [[counter(6)]]  | 6    |\n\n- **Condição**: Exemplo\n- **Armadura**: 1",
        "# Inventário\n\n| | Item | Descrição | Utilização |\n| --- | --- | --- | --- |\n| **#1** | Adaga | Explosão: 6 | [[checkbox(0)]] [[checkbox(0)]] [[checkbox(0)]] |\n| **#2** | Exemplo | Exemplo | [[checkbox(0)]] [[checkbox(0)]] [[checkbox(0)]] |\n| **#3** | Exemplo | Exemplo | [[checkbox(0)]] [[checkbox(0)]] [[checkbox(0)]] |\n| **#4** | Exemplo | Exemplo | [[checkbox(0)]] [[checkbox(0)]] [[checkbox(0)]] |\n| **#5** | Exemplo | Exemplo | [[checkbox(0)]] [[checkbox(0)]] [[checkbox(0)]] |\n| **#6** | Exemplo | Exemplo | [[checkbox(0)]] [[checkbox(0)]] [[checkbox(0)]] |\n\n**Obsídio**: 0\n\n## Palavras de Encantamento\n\n- Exemplo\n- Exemplo"
      ]
    },
    {
      "name": "Into The Odd",
      "sheetAuthor": {
        "name": "Grepehu",
        "url": "https://grepehu.neocities.org/"
      },
      "sheet": [
        "# Character Name\n\n## Description\n\nA simple introduction about your character.",
        "# Health\n\n| Current    | Max |\n| -------- | ------- |\n| [[counter(6)]]  | 6    |\n\n- **Armor**: 1\n- **Critical Damage**: [[checkbox(0)]]\n- **Deprived**: [[checkbox(0)]]",
        "# Items\n\n- Apple\n- Water\n\n## Money\n\n| Pennies | Shillings | Guilders |\n| -------- | -------- | ------- |\n| 0 | 100  | 0    |\n\n## Weapons\n\n| Weapon    | Damage |\n| -------- | ------- |\n| Dagger  | D6    |",
        "# Stats\n\n|     | Current    | Max |\n| -------- | -------- | ------- |\n| **STR** | [[counter(10)]]  | 10    |\n| **DEX** | [[counter(10)]] | 10     |\n| **WIL** | [[counter(10)]]    | 10    |",
        "# Notes\n\nPersonal notes here"
      ]
    },
    {
      "name": "Ironsworn",
      "sheetAuthor": {
        "name": "Grepehu",
        "url": "https://grepehu.neocities.org/"
      },
      "sheet": [
        "# Character Name\n\n## Description\n\nA simple introduction about your character.\n\n## Experience\n\n[[counter(0)]]\n\n## Bonds\n\n[[checkbox(0)]]  [[checkbox(0)]]  [[checkbox(0)]]  [[checkbox(0)]]  [[checkbox(0)]]  [[checkbox(0)]]  [[checkbox(0)]]  [[checkbox(0)]]  [[checkbox(0)]]  [[checkbox(0)]]",
        "# Vows\n\n## Vow 1\n\n|  | +1 |  +2 |  +3 |  +4 |  +5 |  +6 |  +7 |  +8 |  +9 |  +10 |\n| ---- | ---- | ---- | ---- | ---- | ---- | ---- | ---- | ---- | ---- | ---- |\n| Ticks | X | 2 | 1 | 0 | 0 | 0 | 0 | 0 | 0 | 0 |\n\n| Troublesome | Dangerous | Formidable | Extreme | Epic |\n| ---- | ---- | ---- | ---- | ---- |\n| [[checkbox(0)]] | [[checkbox(0)]] | [[checkbox(0)]] | [[checkbox(0)]] | [[checkbox(0)]] |\n\n## Vow 2\n\n|  | +1 |  +2 |  +3 |  +4 |  +5 |  +6 |  +7 |  +8 |  +9 |  +10 |\n| ---- | ---- | ---- | ---- | ---- | ---- | ---- | ---- | ---- | ---- | ---- |\n| Ticks | X | 2 | 1 | 0 | 0 | 0 | 0 | 0 | 0 | 0 |\n\n| Troublesome | Dangerous | Formidable | Extreme | Epic |\n| ---- | ---- | ---- | ---- | ---- |\n| [[checkbox(0)]] | [[checkbox(0)]] | [[checkbox(0)]] | [[checkbox(0)]] | [[checkbox(0)]] |",
        "# Stats\n\n| Edge | Heart | Iron | Shadow | Wits |\n| ---- | ---- | ---- | ---- | ---- |\n| 0 | 0 | 0 | 0 | 0 |\n\n## Momentum\n\n**Current:** [[counter(2)]]\n\n| Reset | Max |\n| ---- | ---- |\n| 2 | 10 |",
        "# Health\n\n| Health | Spirit | Supply |\n| -------- | -------- | ------- |\n| [[counter(5)]]  | [[counter(5)]]  | [[counter(5)]] |\n\n## Debilities\n\n### Conditions\n\n| Wounded | Shaken | Unprepared | Encumbered |\n| -------- | -------- | ------- | ------- |\n| [[checkbox(0)]] | [[checkbox(0)]] | [[checkbox(0)]] | [[checkbox(0)]] |\n\n### Banes\n\n| Maimed | Corrupted |\n| ---- | ---- |\n| [[checkbox(0)]] | [[checkbox(0)]] |\n\n### Burdens\n\n| Cursed | Tormented |\n| ---- | ---- |\n| [[checkbox(0)]] | [[checkbox(0)]] |\n",
        "# Assets\n\n## Title Asset Card 1\n\n**Type:** Companion / Path / Talent / Ritual\n\nBrief description ...\n\n- [[checkbox(1)]] Asset card effect #1;\n- [[checkbox(0)]] Asset card effect #2;\n- [[checkbox(0)]] Asset card effect #3;\n\n## Title Asset Card 2\n\n**Type:** Companion / Path / Talent / Ritual\n\nBrief description ...\n\n- [[checkbox(1)]] Asset card effect #1;\n- [[checkbox(0)]] Asset card effect #2;\n- [[checkbox(0)]] Asset card effect #3;",
        "# Notes\n\nPersonal notes here"
      ]
    },
    {
      "name": "Mythic GME 2e",
      "sheetAuthor": {
        "name": "Grepehu",
        "url": "https://grepehu.neocities.org/"
      },
      "sheet": [
        "# Adventure Journal\n\n> Test The Expected Scene Against The Chaos Factor > Play Out The Scene > Update Lists & Chaos Factor\n\n**Adventure Title:** Example\n\n**Current Chaos Factor:** [[counter(5)]]\n\n| Scene Number | Scene Summary |\n| ---- | ---- |\n| 1 | Description about this specific scene |\n| 2 | Description about this specific scene |\n\n## Notes\n\nAnything you might need to add.",
        "# Adventure Lists\n\n| 1-2    | Threads List | 1-2    | Characters List |\n| -------- | ------- | -------- | ------- |\n| 1-2  | CHOOSE    | 1-2  | CHOOSE    |\n| 3-4  | CHOOSE    | 3-4  | CHOOSE    |\n| 5-6  | CHOOSE    | 5-6  | CHOOSE    |\n| 7-8  | CHOOSE    | 7-8  | CHOOSE    |\n| 9-10  | CHOOSE    | 9-10  | CHOOSE    |\n\n| 3-4    | Threads List | 3-4    | Characters List |\n| -------- | ------- | -------- | ------- |\n| 1-2  | CHOOSE    | 1-2  | CHOOSE    |\n| 3-4  | CHOOSE    | 3-4  | CHOOSE    |\n| 5-6  | CHOOSE    | 5-6  | CHOOSE    |\n| 7-8  | CHOOSE    | 7-8  | CHOOSE    |\n| 9-10  | CHOOSE    | 9-10  | CHOOSE    |\n\n| 5-6    | Threads List | 5-6    | Characters List |\n| -------- | ------- | -------- | ------- |\n| 1-2  | CHOOSE    | 1-2  | CHOOSE    |\n| 3-4  | CHOOSE    | 3-4  | CHOOSE    |\n| 5-6  | CHOOSE    | 5-6  | CHOOSE    |\n| 7-8  | CHOOSE    | 7-8  | CHOOSE    |\n| 9-10  | CHOOSE    | 9-10  | CHOOSE    |\n\n| 7-8    | Threads List | 7-8    | Characters List |\n| -------- | ------- | -------- | ------- |\n| 1-2  | CHOOSE    | 1-2  | CHOOSE    |\n| 3-4  | CHOOSE    | 3-4  | CHOOSE    |\n| 5-6  | CHOOSE    | 5-6  | CHOOSE    |\n| 7-8  | CHOOSE    | 7-8  | CHOOSE    |\n| 9-10  | CHOOSE    | 9-10  | CHOOSE    |\n\n| 9-10    | Threads List | 9-10    | Characters List |\n| -------- | ------- | -------- | ------- |\n| 1-2  | CHOOSE    | 1-2  | CHOOSE    |\n| 3-4  | CHOOSE    | 3-4  | CHOOSE    |\n| 5-6  | CHOOSE    | 5-6  | CHOOSE    |\n| 7-8  | CHOOSE    | 7-8  | CHOOSE    |\n| 9-10  | CHOOSE    | 9-10  | CHOOSE    |",
        "# Fate Chart\n\n|  Chaos   | 1  | 2  | 3  | 4  | 5  | 6  | 7  | 8  | 9  |\n| -------- | ------- | ------- | ------- | ------- | ------- | ------- | ------- | ------- | ------- |\n| Certain  | 10 **50** 91 | 13 **65** 94 | 15 **75** 96 | 17 **85** 98 | 18 **90** 99 | 19 **95** 100 | 20 **99** x | 20 **99** x | 20 **99** x |\n| Nearly Certain  | 7 **35** 88 | 10 **50** 91 | 13 **65** 94 | 15 **75** 96 | 17 **85** 98 | 18 **90** 99 | 19 **95** 100 | 20 **99** x | 20 **99** x |\n| Very Likely  | 5 **25** 86 | 7 **35** 88 | 10 **50** 91 | 13 **65** 94 | 15 **75** 96 | 17 **85** 98 | 18 **90** 99 | 19 **95** 100 | 20 **99** x |\n| Likely  | 3 **15** 84 | 5 **25** 86 | 7 **35** 88 | 10 **50** 91 | 13 **65** 94 | 15 **75** 96 | 17 **85** 98 | 18 **90** 99 | 19 **95** 100 |\n| 50/50  | 2 **10** 83 | 3 **15** 84 | 5 **25** 86 | 7 **35** 88 | 10 **50** 91 | 13 **65** 94 | 15 **75** 96 | 17 **85** 98 | 18 **90** 99 |\n| Unlikely  | 1 **5** 82 | 2 **10** 83 | 3 **15** 84 | 5 **25** 86 | 7 **35** 88 | 10 **50** 91 | 13 **65** 94 | 15 **75** 96 | 17 **85** 98 |\n| Very Unlikely  | x **1** 81 | 1 **5** 82 | 2 **10** 83 | 3 **15** 84 | 5 **25** 86 | 7 **35** 88 | 10 **50** 91 | 13 **65** 94 | 15 **75** 96 |\n| Nearly Impossible  | x **1** 81 | x **1** 81 | 1 **5** 82 | 2 **10** 83 | 3 **15** 84 | 5 **25** 86 | 7 **35** 88 | 10 **50** 91 | 13 **65** 94 |\n| Impossible  | x **1** 81 | x **1** 81 | x **1** 81 | 1 **5** 82 | 2 **10** 83 | 3 **15** 84 | 5 **25** 86 | 7 **35** 88 | 10 **50** 91 |",
        "# Expected Scene\n\n## Testing The Expected Scene\n\nRoll 1d10 and Compare It To The Chaos Factor.\n\n|  |  |\n| ---- | ---- |\n| Roll Over Chaos Factor | Expected Scene |\n| Roll Odd (1, 3, 5, 7, 9) Within Chaos Factor | Altered Scene |\n| Roll Even (2, 4, 6, 8) Within Chaos Factor | Interrupt Scene |\n\n## Scene Adjustment Table\n\n| 1d10 | Result |\n| ---- | ---- |\n| 1 | Remove A Character |\n| 2 | Add A Character |\n| 3 | Reduce/Remove An Activity |\n| 4 | Increase An Activity |\n| 5 | Remove An Object |\n| 6 | Add An Object |\n| 7-10 | Make 2 Adjustments |",
        "# Random Event\n\n| 1d100 | Result |\n| ---- | ---- |\n| 1-5 | Remote Event |\n| 6-10 | Ambiguous Event |\n| 11-20 | New NPC |\n| 21-40 | NPC Action |\n| 41-45 | NPC Negative |\n| 46-50 | NPC Positive |\n| 51-55 | Move Toward A Thread |\n| 56-65 | Move Away From A Thread |\n| 66-70 | Close A Thread |\n| 71-80 | PC Negative |\n| 81-85 | PC Positive |\n| 86-100 | Current Context |\n",
        "# Action 1\n\n| | | | | |\n| --- | --- | --- | --- | --- |\n| **1**: Abandon | **21**: Communicate | **41**: Escape | **61**: Misuse | **81**: Ruin |\n| **2**: Accompany | **22**: Conceal | **42**: Expose | **62**: Move | **82**: Separate |\n| **3**: Activate | **23**: Continue | **43**: Fail | **63**: Neglect | **83**: Start |\n| **4**: Agree | **24**: Control | **44**: Fight | **64**: Observe | **84**: Stop |\n| **5**: Ambush | **25**: Create | **45**: Flee | **65**: Open | **85**: Strange |\n| **6**: Arrive | **26**: Deceive | **46**: Free | **66**: Oppose | **86**: Struggle |\n| **7**: Assist | **27**: Decrease | **47**: Guide | **67**: Overthrow | **87**: Succeed |\n| **8**: Attack | **28**: Defend | **48**: Harm | **68**: Praise | **88**: Support |\n| **9**: Attain | **29**: Delay | **49**: Heal | **69**: Proceed | **89**: Suppress |\n| **10**: Bargain | **30**: Deny | **50**: Hinder | **70**: Protect | **90**: Take |\n| **11**: Befriend | **31**: Depart | **51**: Imitate | **71**: Punish | **91**: Threaten |\n| **12**: Bestow | **32**: Deposit | **52**: Imprison | **72**: Pursue | **92**: Transform |\n| **13**: Betray | **33**: Destroy | **53**: Increase | **73**: Recruit | **93**: Trap |\n| **14**: Block | **34**: Dispute | **54**: Indulge | **74**: Refuse | **94**: Travel |\n| **15**: Break | **35**: Disrupt | **55**: Inform | **75**: Release | **95**: Triumph |\n| **16**: Carry | **36**: Distrust | **56**: Inquire | **76**: Relinquish | **96**: Truce |\n| **17**: Celebrate | **37**: Divide | **57**: Inspect | **77**: Repair | **97**: Trust |\n| **18**: Change | **38**: Drop | **58**: Invade | **78**: Repulse | **98**: Use |\n| **19**: Close | **39**: Easy | **59**: Leave | **79**: Return | **99**: Usurp |\n| **20**: Combine | **40**: Energize | **60**: Lure | **80**: Reward | **100**: Waste |",
        "# Action 2\n\n| | | | | |\n| --- | --- | --- | --- | --- |\n| **1**: Advantage | **21**: Disadvantage | **41**: Hope | **61**: Object | **81**: Representative |\n| **2**: Adversity | **22**: Distraction | **42**: Idea | **62**: Obscurity | **82**: Riches |\n| **3**: Agreement | **23**: Elements | **43**: Illness | **63**: Official | **83**: Safety |\n| **4**: Animal | **24**: Emotion | **44**: Illusion | **64**: Opposition | **84**: Strength |\n| **5**: Attention | **25**: Enemy | **45**: Individual | **65**: Outside | **85**: Success |\n| **6**: Balance | **26**: Energy | **46**: Information | **66**: Pain | **86**: Suffering |\n| **7**: Battle | **27**: Environment | **47**: Innocent | **67**: Path | **87**: Surprise |\n| **8**: Benefits | **28**: Expectation | **48**: Intellect | **68**: Peace | **88**: Tactic |\n| **9**: Building | **29**: Exterior | **49**: Interior | **69**: People | **89**: Technology |\n| **10**: Burden | **30**: Extravagance | **50**: Investment | **70**: Personal | **90**: Tension |\n| **11**: Bureaucracy | **31**: Failure | **51**: Leadership | **71**: Physical | **91**: Time |\n| **12**: Business | **32**: Fame | **52**: Legal | **72**: Plot | **92**: Trial |\n| **13**: Chaos | **33**: Fear | **53**: Location | **73**: Portal | **93**: Value |\n| **14**: Comfort | **34**: Freedom | **54**: Military | **74**: Possessions | **94**: Vehicle |\n| **15**: Completion | **35**: Friend | **55**: Misfortune | **75**: Poverty | **95**: Victory |\n| **16**: Conflict | **36**: Goal | **56**: Mundane | **76**: Power | **96**: Vulnerability |\n| **17**: Cooperation | **37**: Group | **57**: Nature | **77**: Prison | **97**: Weapon |\n| **18**: Danger | **38**: Health | **58**: Needs | **78**: Project | **98**: Weather |\n| **19**: Defense | **39**: Hindrance | **59**: News | **79**: Protection | **99**: Work |\n| **20**: Depletion | **40**: Home | **60**: Normal | **80**: Reassurance | **100**: Wound |",
        "# Descriptor 1\n\n| | | | | |\n| --- | --- | --- | --- | --- |\n| **1**: Adventurously | **21**: Defiantly | **41**: Generously | **61**: Loudly | **81**: Playfully |\n| **2**: Aggressively | **22**: Deliberately | **42**: Gently | **62**: Lovingly | **82**: Politely |\n| **3**: Anxiously | **23**: Delicately | **43**: Gladly | **63**: Loyally | **83**: Positively |\n| **4**: Awkwardly | **24**: Delightfully | **44**: Gracefully | **64**: Majestically | **84**: Powerfully |\n| **5**: Beautifully | **25**: Dimly | **45**: Gratefully | **65**: Meaningfully | **85**: Quaintly |\n| **6**: Bleakly | **26**: Efficiently | **46**: Happily | **66**: Mechanically | **86**: Quarrelsomely |\n| **7**: Boldly | **27**: Emotionally | **47**: Hastily | **67**: Mildly | **87**: Quietly |\n| **8**: Bravely | **28**: Energetically | **48**: Healthily | **68**: Miserably | **88**: Roughly |\n| **9**: Busily | **29**: Enormously | **49**: Helpfully | **69**: Mockingly | **89**: Rudely |\n| **10**: Calmly | **30**: Enthusiastically | **50**: Helplessly | **70**: Mysteriously | **90**: Ruthlessly |\n| **11**: Carefully | **31**: Excitedly | **51**: Hopelessly | **71**: Naturally | **91**: Slowly |\n| **12**: Carelessly | **32**: Fearfully | **52**: Innocently | **72**: Neatly | **92**: Softly |\n| **13**: Cautiously | **33**: Ferociously | **53**: Intensely | **73**: Nicely | **93**: Strangely |\n| **14**: Ceaselessly | **34**: Fiercely | **54**: Interestingly | **74**: Oddly | **94**: Swiftly |\n| **15**: Cheerfully | **35**: Foolishly | **55**: Irritatingly | **75**: Offensively | **95**: Threateningly |\n| **16**: Combatively | **36**: Fortunately | **56**: Joyfully | **76**: Officially | **96**: Timidly |\n| **17**: Coolly | **37**: Frantically | **57**: Kindly | **77**: Partially | **97**: Very |\n| **18**: Crazily | **38**: Freely | **58**: Lazily | **78**: Passively | **98**: Violently |\n| **19**: Curiously | **39**: Frighteningly | **59**: Lightly | **79**: Peacefully | **99**: Wildly |\n| **20**: Dangerously | **40**: Fully | **60**: Loosely | **80**: Perfectly | **100**: Yieldingly |",
        "# Descriptor 2\n\n| | | | | |\n| --- | --- | --- | --- | --- |\n| **1**: Abnormal | **21**: Disagreeable | **41**: Hard | **61**: Messy | **81**: Remarkable |\n| **2**: Amusing | **22**: Dry | **42**: Harsh | **62**: Mighty | **82**: Rotten |\n| **3**: Artificial | **23**: Dull | **43**: Healthy | **63**: Military | **83**: Rough |\n| **4**: Average | **24**: Empty | **44**: Heavy | **64**: Modern | **84**: Ruined |\n| **5**: Beautiful | **25**: Enormous | **45**: Historical | **65**: Mundane | **85**: Rustic |\n| **6**: Bizarre | **26**: Extraordinary | **46**: Horrible | **66**: Mysterious | **86**: Scary |\n| **7**: Boring | **27**: Extravagant | **47**: Important | **67**: Natural | **87**: Shocking |\n| **8**: Bright | **28**: Faded | **48**: Interesting | **68**: Normal | **88**: Simple |\n| **9**: Broken | **29**: Familiar | **49**: Juvenile | **69**: Odd | **89**: Small |\n| **10**: Clean | **30**: Fancy | **50**: Lacking | **70**: Old | **90**: Smooth |\n| **11**: Cold | **31**: Feeble | **51**: Large | **71**: Pale | **91**: Soft |\n| **12**: Colorful | **32**: Festive | **52**: Lavish | **72**: Peaceful | **92**: Strong |\n| **13**: Colorless | **33**: Flawless | **53**: Lean | **73**: Petite | **93**: Stylish |\n| **14**: Comforting | **34**: Forlorn | **54**: Less | **74**: Plain | **94**: Unpleasant |\n| **15**: Creepy | **35**: Fragile | **55**: Lethal | **75**: Poor | **95**: Valuable |\n| **16**: Cute | **36**: Fragrant | **56**: Lively | **76**: Powerful | **96**: Vibrant |\n| **17**: Damaged | **37**: Fresh | **57**: Lonely | **77**: Protective | **97**: Warm |\n| **18**: Dark | **38**: Full | **58**: Lovely | **78**: Quaint | **98**: Watery |\n| **19**: Defeated | **39**: Glorious | **59**: Magnificent | **79**: Rare | **99**: Weak |\n| **20**: Dirty | **40**: Graceful | **60**: Mature | **80**: Reassuring | **100**: Young |"
      ]
    },
    {
      "name": "Neon City Overdrive",
      "sheetAuthor": {
        "name": "Grepehu",
        "url": "https://grepehu.neocities.org/"
      },
      "sheet": [
        "# Character Name\n\n## Description\n\nA simple introduction about your character.\n\n## Drive\n\nYour character motivation\n\n### Drive Track:\n\n[[checkbox(0)]]  [[checkbox(0)]]  [[checkbox(0)]]  [[checkbox(0)]]  [[checkbox(0)]]\n\n[[checkbox(0)]]  [[checkbox(0)]]  [[checkbox(0)]]  [[checkbox(0)]]  [[checkbox(0)]]\n\n## Experience Points\n\n[[checkbox(0)]]  [[checkbox(0)]]  [[checkbox(0)]]  [[checkbox(0)]]  [[checkbox(0)]]\n\n[[checkbox(0)]]  [[checkbox(0)]]  [[checkbox(0)]]  [[checkbox(0)]]  [[checkbox(0)]]\n\n[[checkbox(0)]]  [[checkbox(0)]]  [[checkbox(0)]]  [[checkbox(0)]]  [[checkbox(0)]]",
        "# Health\n\n## Hits\n\n[[checkbox(0)]]  [[checkbox(0)]]  [[checkbox(0)]]  [[checkbox(0)]]\n\n## Conditions\n\n|  |  |  |  |\n| ---- | ---- | ---- | ---- |\n| Angry | [[checkbox(0)]] | Dazed | [[checkbox(0)]] |\n| Exhausted | [[checkbox(0)]] | Scared | [[checkbox(0)]] |\n| Restrained | [[checkbox(0)]] | Weakened | [[checkbox(0)]] |\n\n## Traumas\n\n- Example",
        "# Gear\n\n- Example\n\n## Stash\n\n[[checkbox(0)]]  [[checkbox(0)]]  [[checkbox(0)]]  [[checkbox(0)]]",
        "# Trademarks\n\n**Stunt Points**: [[counter(0)]]\n\n**Trademark**: Example\n|     | Edge |\n| --------| -------- |\n| + | Example |\n| + | Example |\n| + | Example |\n\n**Trademark**: Example\n|     | Edge |\n| --------| -------- |\n| + | Example |\n| + | Example |\n| + | Example |\n\n**Trademark**: Example\n|     | Edge |\n| --------| -------- |\n| + | Example |\n| + | Example |\n| + | Example |\n\n## Flaws\n\n- Example\n- Example",
        "# Notes\n\nPersonal notes here"
      ]
    },
    {
      "name": "Vampire: The Masquerade (V5)",
      "sheetAuthor": {
        "name": "Grepehu",
        "url": "https://grepehu.neocities.org/"
      },
      "sheet": [
        "# Character Name\n\n**Concept:** Example\n\n**Predator:** Example\n\n**Chronicle:** Example\n\n**Ambition:** Example\n\n**Clan:** Example\n\n**Sire:** Example\n\n**Desire:** Example\n\n**Generation:** Example",
        "# Attributes\n\n## Physical\n| | |\n| -------- | ------- |\n| Strength | [[checkbox(0)]] [[checkbox(0)]] [[checkbox(0)]] [[checkbox(0)]] [[checkbox(0)]] |\n| Dexterity | [[checkbox(0)]] [[checkbox(0)]] [[checkbox(0)]] [[checkbox(0)]] [[checkbox(0)]] |\n| Stamina | [[checkbox(0)]] [[checkbox(0)]] [[checkbox(0)]] [[checkbox(0)]] [[checkbox(0)]] |\n\n## Social\n| | |\n| -------- | ------- |\n| Charisma | [[checkbox(0)]] [[checkbox(0)]] [[checkbox(0)]] [[checkbox(0)]] [[checkbox(0)]] |\n| Manipulation | [[checkbox(0)]] [[checkbox(0)]] [[checkbox(0)]] [[checkbox(0)]] [[checkbox(0)]] |\n| Composure | [[checkbox(0)]] [[checkbox(0)]] [[checkbox(0)]] [[checkbox(0)]] [[checkbox(0)]] |\n\n## Mental\n| | |\n| -------- | ------- |\n| Intelligence | [[checkbox(0)]] [[checkbox(0)]] [[checkbox(0)]] [[checkbox(0)]] [[checkbox(0)]] |\n| Wits | [[checkbox(0)]] [[checkbox(0)]] [[checkbox(0)]] [[checkbox(0)]] [[checkbox(0)]] |\n| Resolve | [[checkbox(0)]] [[checkbox(0)]] [[checkbox(0)]] [[checkbox(0)]] [[checkbox(0)]] |",
        "# Skills\n\n## Physical\n| | |\n| -------- | ------- |\n| Athletics | [[checkbox(0)]] [[checkbox(0)]] [[checkbox(0)]] [[checkbox(0)]] [[checkbox(0)]] |\n| Brawl | [[checkbox(0)]] [[checkbox(0)]] [[checkbox(0)]] [[checkbox(0)]] [[checkbox(0)]] |\n| Craft | [[checkbox(0)]] [[checkbox(0)]] [[checkbox(0)]] [[checkbox(0)]] [[checkbox(0)]] |\n| Drive | [[checkbox(0)]] [[checkbox(0)]] [[checkbox(0)]] [[checkbox(0)]] [[checkbox(0)]] |\n| Firearms | [[checkbox(0)]] [[checkbox(0)]] [[checkbox(0)]] [[checkbox(0)]] [[checkbox(0)]] |\n| Larceny | [[checkbox(0)]] [[checkbox(0)]] [[checkbox(0)]] [[checkbox(0)]] [[checkbox(0)]] |\n| Melee | [[checkbox(0)]] [[checkbox(0)]] [[checkbox(0)]] [[checkbox(0)]] [[checkbox(0)]] |\n| Stealth | [[checkbox(0)]] [[checkbox(0)]] [[checkbox(0)]] [[checkbox(0)]] [[checkbox(0)]] |\n| Survival | [[checkbox(0)]] [[checkbox(0)]] [[checkbox(0)]] [[checkbox(0)]] [[checkbox(0)]] |\n\n## Social\n| | |\n| -------- | ------- |\n| Animal Ken | [[checkbox(0)]] [[checkbox(0)]] [[checkbox(0)]] [[checkbox(0)]] [[checkbox(0)]] |\n| Etiquette | [[checkbox(0)]] [[checkbox(0)]] [[checkbox(0)]] [[checkbox(0)]] [[checkbox(0)]] |\n| Insight | [[checkbox(0)]] [[checkbox(0)]] [[checkbox(0)]] [[checkbox(0)]] [[checkbox(0)]] |\n| Intimidation | [[checkbox(0)]] [[checkbox(0)]] [[checkbox(0)]] [[checkbox(0)]] [[checkbox(0)]] |\n| Leadership | [[checkbox(0)]] [[checkbox(0)]] [[checkbox(0)]] [[checkbox(0)]] [[checkbox(0)]] |\n| Performance | [[checkbox(0)]] [[checkbox(0)]] [[checkbox(0)]] [[checkbox(0)]] [[checkbox(0)]] |\n| Persuasion | [[checkbox(0)]] [[checkbox(0)]] [[checkbox(0)]] [[checkbox(0)]] [[checkbox(0)]] |\n| Streetwise | [[checkbox(0)]] [[checkbox(0)]] [[checkbox(0)]] [[checkbox(0)]] [[checkbox(0)]] |\n| Subterfuge | [[checkbox(0)]] [[checkbox(0)]] [[checkbox(0)]] [[checkbox(0)]] [[checkbox(0)]] |\n\n## Mental\n| | |\n| -------- | ------- |\n| Academics | [[checkbox(0)]] [[checkbox(0)]] [[checkbox(0)]] [[checkbox(0)]] [[checkbox(0)]] |\n| Awareness | [[checkbox(0)]] [[checkbox(0)]] [[checkbox(0)]] [[checkbox(0)]] [[checkbox(0)]] |\n| Finance | [[checkbox(0)]] [[checkbox(0)]] [[checkbox(0)]] [[checkbox(0)]] [[checkbox(0)]] |\n| Investigation | [[checkbox(0)]] [[checkbox(0)]] [[checkbox(0)]] [[checkbox(0)]] [[checkbox(0)]] |\n| Medicine | [[checkbox(0)]] [[checkbox(0)]] [[checkbox(0)]] [[checkbox(0)]] [[checkbox(0)]] |\n| Occult | [[checkbox(0)]] [[checkbox(0)]] [[checkbox(0)]] [[checkbox(0)]] [[checkbox(0)]] |\n| Politics | [[checkbox(0)]] [[checkbox(0)]] [[checkbox(0)]] [[checkbox(0)]] [[checkbox(0)]] |\n| Science | [[checkbox(0)]] [[checkbox(0)]] [[checkbox(0)]] [[checkbox(0)]] [[checkbox(0)]] |\n| Technology | [[checkbox(0)]] [[checkbox(0)]] [[checkbox(0)]] [[checkbox(0)]] [[checkbox(0)]] |",
        "# Disciplines\n\n## Discipline 1\n\n[[checkbox(0)]] [[checkbox(0)]] [[checkbox(0)]] [[checkbox(0)]] [[checkbox(0)]]\n\n- Power 1\n- Power 2\n\n## Discipline 2\n\n[[checkbox(0)]] [[checkbox(0)]] [[checkbox(0)]] [[checkbox(0)]] [[checkbox(0)]]\n\n- Power 1\n- Power 2",
        "# Health\n\n**Health:** \n\n[[checkbox(0)]] [[checkbox(0)]] [[checkbox(0)]] [[checkbox(0)]] [[checkbox(0)]]\n\n [[checkbox(0)]] [[checkbox(0)]] [[checkbox(0)]] [[checkbox(0)]] [[checkbox(0)]]\n\n**Willpower:** \n\n[[checkbox(0)]] [[checkbox(0)]] [[checkbox(0)]] [[checkbox(0)]] [[checkbox(0)]]\n\n [[checkbox(0)]] [[checkbox(0)]] [[checkbox(0)]] [[checkbox(0)]] [[checkbox(0)]]\n\n**Resonance:** Example\n\n**Hunger:** \n\n[[checkbox(0)]] [[checkbox(0)]] [[checkbox(0)]] [[checkbox(0)]] [[checkbox(0)]]\n\n**Humanity:** \n\n[[checkbox(0)]] [[checkbox(0)]] [[checkbox(0)]] [[checkbox(0)]] [[checkbox(0)]]\n\n [[checkbox(0)]] [[checkbox(0)]] [[checkbox(0)]] [[checkbox(0)]] [[checkbox(0)]]",
        "# Advantages & Flaws\n\n| | |\n| -------- | ------- |\n| Example | [[checkbox(0)]] [[checkbox(0)]] [[checkbox(0)]] [[checkbox(0)]] [[checkbox(0)]] |\n| Example | [[checkbox(0)]] [[checkbox(0)]] [[checkbox(0)]] [[checkbox(0)]] [[checkbox(0)]] |\n| Example | [[checkbox(0)]] [[checkbox(0)]] [[checkbox(0)]] [[checkbox(0)]] [[checkbox(0)]] |",
        "# Blood\n\n**Blood Potency**:\n\n[[checkbox(0)]] [[checkbox(0)]] [[checkbox(0)]] [[checkbox(0)]] [[checkbox(0)]]\n\n [[checkbox(0)]] [[checkbox(0)]] [[checkbox(0)]] [[checkbox(0)]] [[checkbox(0)]]\n\n**Blood Surge**: Example\n\n**Mend Amount**: Example\n\n**Power Bonus**: Example\n\n**Rouse Re-Roll**: Example\n\n**Feeding Penalty**: Example\n\n**Bane Severity**: Example",
        "# Experience\n\n**Chronicle Tenets:** Example\n\n**Touchstones & Convictions:** Example\n\n**Clan Bane:** Example\n\n**Total Experience:** [[counter(0)]]\n\n**Spent Experience:** [[counter(0)]]\n\n**True age:** 0\n\n**Apparent age:** 0\n\n**Date of birth:** 0\n\n**Date of death:** 0\n\n**Appearance:** Example\n\n**Distinguishing features:** Example\n\n**History:** Example",
        "# Notes\n\nPersonal Notes."
      ]
    },
    {
      "name": "Vampire: The Masquerade (V5) (PT-BR)",
      "sheetAuthor": {
        "name": "Grepehu",
        "url": "https://grepehu.neocities.org/"
      },
      "sheet": [
        "# Nome do Personagem\n\n**Conceito:** Exemplo\n\n**Predador:** Exemplo\n\n**Crônica:** Exemplo\n\n**Ambição:** Exemplo\n\n**Clã:** Exemplo\n\n**Senhor:** Exemplo\n\n**Desejo:** Exemplo\n\n**Geração:** Exemplo",
        "# Atributos\n\n## Físicos\n| | |\n| -------- | ------- |\n| Força | [[checkbox(0)]] [[checkbox(0)]] [[checkbox(0)]] [[checkbox(0)]] [[checkbox(0)]] |\n| Destreza | [[checkbox(0)]] [[checkbox(0)]] [[checkbox(0)]] [[checkbox(0)]] [[checkbox(0)]] |\n| Vigor | [[checkbox(0)]] [[checkbox(0)]] [[checkbox(0)]] [[checkbox(0)]] [[checkbox(0)]] |\n\n## Sociais\n| | |\n| -------- | ------- |\n| Carisma | [[checkbox(0)]] [[checkbox(0)]] [[checkbox(0)]] [[checkbox(0)]] [[checkbox(0)]] |\n| Manipulação | [[checkbox(0)]] [[checkbox(0)]] [[checkbox(0)]] [[checkbox(0)]] [[checkbox(0)]] |\n| Autocontrole | [[checkbox(0)]] [[checkbox(0)]] [[checkbox(0)]] [[checkbox(0)]] [[checkbox(0)]] |\n\n## Mentais\n| | |\n| -------- | ------- |\n| Inteligência | [[checkbox(0)]] [[checkbox(0)]] [[checkbox(0)]] [[checkbox(0)]] [[checkbox(0)]] |\n| Raciocínio | [[checkbox(0)]] [[checkbox(0)]] [[checkbox(0)]] [[checkbox(0)]] [[checkbox(0)]] |\n| Determinação | [[checkbox(0)]] [[checkbox(0)]] [[checkbox(0)]] [[checkbox(0)]] [[checkbox(0)]] |",
        "# Habilidades\n\n## Físicos\n| | |\n| -------- | ------- |\n| Armas Brancas | [[checkbox(0)]] [[checkbox(0)]] [[checkbox(0)]] [[checkbox(0)]] [[checkbox(0)]] |\n| Armas de Fogo | [[checkbox(0)]] [[checkbox(0)]] [[checkbox(0)]] [[checkbox(0)]] [[checkbox(0)]] |\n| Atletismo | [[checkbox(0)]] [[checkbox(0)]] [[checkbox(0)]] [[checkbox(0)]] [[checkbox(0)]] |\n| Briga | [[checkbox(0)]] [[checkbox(0)]] [[checkbox(0)]] [[checkbox(0)]] [[checkbox(0)]] |\n| Condução | [[checkbox(0)]] [[checkbox(0)]] [[checkbox(0)]] [[checkbox(0)]] [[checkbox(0)]] |\n| Furtividade | [[checkbox(0)]] [[checkbox(0)]] [[checkbox(0)]] [[checkbox(0)]] [[checkbox(0)]] |\n| Ladroagem | [[checkbox(0)]] [[checkbox(0)]] [[checkbox(0)]] [[checkbox(0)]] [[checkbox(0)]] |\n| Ofícios | [[checkbox(0)]] [[checkbox(0)]] [[checkbox(0)]] [[checkbox(0)]] [[checkbox(0)]] |\n| Sobrevivência | [[checkbox(0)]] [[checkbox(0)]] [[checkbox(0)]] [[checkbox(0)]] [[checkbox(0)]] |\n\n## Sociais\n| | |\n| -------- | ------- |\n| Empatia com Animais | [[checkbox(0)]] [[checkbox(0)]] [[checkbox(0)]] [[checkbox(0)]] [[checkbox(0)]] |\n| Etiqueta | [[checkbox(0)]] [[checkbox(0)]] [[checkbox(0)]] [[checkbox(0)]] [[checkbox(0)]] |\n| Intimidação | [[checkbox(0)]] [[checkbox(0)]] [[checkbox(0)]] [[checkbox(0)]] [[checkbox(0)]] |\n| Liderança | [[checkbox(0)]] [[checkbox(0)]] [[checkbox(0)]] [[checkbox(0)]] [[checkbox(0)]] |\n| Manha | [[checkbox(0)]] [[checkbox(0)]] [[checkbox(0)]] [[checkbox(0)]] [[checkbox(0)]] |\n| Performance | [[checkbox(0)]] [[checkbox(0)]] [[checkbox(0)]] [[checkbox(0)]] [[checkbox(0)]] |\n| Persuasão | [[checkbox(0)]] [[checkbox(0)]] [[checkbox(0)]] [[checkbox(0)]] [[checkbox(0)]] |\n| Sagacidade | [[checkbox(0)]] [[checkbox(0)]] [[checkbox(0)]] [[checkbox(0)]] [[checkbox(0)]] |\n| Subterfúgio | [[checkbox(0)]] [[checkbox(0)]] [[checkbox(0)]] [[checkbox(0)]] [[checkbox(0)]] |\n\n## Mentais\n| | |\n| -------- | ------- |\n| Ciência | [[checkbox(0)]] [[checkbox(0)]] [[checkbox(0)]] [[checkbox(0)]] [[checkbox(0)]] |\n| Erudição | [[checkbox(0)]] [[checkbox(0)]] [[checkbox(0)]] [[checkbox(0)]] [[checkbox(0)]] |\n| Finanças | [[checkbox(0)]] [[checkbox(0)]] [[checkbox(0)]] [[checkbox(0)]] [[checkbox(0)]] |\n| Investigação | [[checkbox(0)]] [[checkbox(0)]] [[checkbox(0)]] [[checkbox(0)]] [[checkbox(0)]] |\n| Medicina | [[checkbox(0)]] [[checkbox(0)]] [[checkbox(0)]] [[checkbox(0)]] [[checkbox(0)]] |\n| Ocultismo | [[checkbox(0)]] [[checkbox(0)]] [[checkbox(0)]] [[checkbox(0)]] [[checkbox(0)]] |\n| Percepção | [[checkbox(0)]] [[checkbox(0)]] [[checkbox(0)]] [[checkbox(0)]] [[checkbox(0)]] |\n| Política | [[checkbox(0)]] [[checkbox(0)]] [[checkbox(0)]] [[checkbox(0)]] [[checkbox(0)]] |\n| Tecnologia | [[checkbox(0)]] [[checkbox(0)]] [[checkbox(0)]] [[checkbox(0)]] [[checkbox(0)]] |",
        "# Disciplinas\n\n## Disciplina 1\n\n[[checkbox(0)]] [[checkbox(0)]] [[checkbox(0)]] [[checkbox(0)]] [[checkbox(0)]]\n\n- Poder 1\n- Poder 2\n\n## Disciplina 2\n\n[[checkbox(0)]] [[checkbox(0)]] [[checkbox(0)]] [[checkbox(0)]] [[checkbox(0)]]\n\n- Poder 1\n- Poder 2",
        "# Vitalidade\n\n**Vitalidade:** \n\n[[checkbox(0)]] [[checkbox(0)]] [[checkbox(0)]] [[checkbox(0)]] [[checkbox(0)]]\n\n [[checkbox(0)]] [[checkbox(0)]] [[checkbox(0)]] [[checkbox(0)]] [[checkbox(0)]]\n\n**Força de Vontade:** \n\n[[checkbox(0)]] [[checkbox(0)]] [[checkbox(0)]] [[checkbox(0)]] [[checkbox(0)]]\n\n [[checkbox(0)]] [[checkbox(0)]] [[checkbox(0)]] [[checkbox(0)]] [[checkbox(0)]]\n\n**Ressonância:** Exemplo\n\n**Fome:** \n\n[[checkbox(0)]] [[checkbox(0)]] [[checkbox(0)]] [[checkbox(0)]] [[checkbox(0)]]\n\n**Humanidade:** \n\n[[checkbox(0)]] [[checkbox(0)]] [[checkbox(0)]] [[checkbox(0)]] [[checkbox(0)]]\n\n [[checkbox(0)]] [[checkbox(0)]] [[checkbox(0)]] [[checkbox(0)]] [[checkbox(0)]]",
        "# Vantagens & Defeitos\n\n| | |\n| -------- | ------- |\n| Exemplo | [[checkbox(0)]] [[checkbox(0)]] [[checkbox(0)]] [[checkbox(0)]] [[checkbox(0)]] |\n| Exemplo | [[checkbox(0)]] [[checkbox(0)]] [[checkbox(0)]] [[checkbox(0)]] [[checkbox(0)]] |\n| Exemplo | [[checkbox(0)]] [[checkbox(0)]] [[checkbox(0)]] [[checkbox(0)]] [[checkbox(0)]] |",
        "# Sangue\n\n**Potência de Sangue**:\n\n[[checkbox(0)]] [[checkbox(0)]] [[checkbox(0)]] [[checkbox(0)]] [[checkbox(0)]]\n\n [[checkbox(0)]] [[checkbox(0)]] [[checkbox(0)]] [[checkbox(0)]] [[checkbox(0)]]\n\n**Surto de Sangue**: Exemplo\n\n**Quantidade Recuperada**: Exemplo\n\n**Bônus de Poder**: Exemplo\n\n**Rerrolagem de Sangue**: Exemplo\n\n**Penalidade de Alimentação**: Exemplo\n\n**Gravidade da Perdição**: Exemplo",
        "# Experiência\n\n**Princípios da Crônica:** Exemplo\n\n**Pilares & Convicções:** Exemplo\n\n**Perdição do Clã:** Exemplo\n\n**Experiência Total:** [[counter(0)]]\n\n**Experiência Gasta:** [[counter(0)]]\n\n**Idade Verdadeira:** 0\n\n**Idade Aparente:** 0\n\n**Data de Nascimento:** 0\n\n**Data de Morte:** 0\n\n**Aparência:** Exemplo\n\n**Traços Distintivos:** Exemplo\n\n**História:** Exemplo",
        "# Notas\n\nNotas pessoais."
      ]
    }
  ]
}

